%!PS-Adobe-3.0 EPSF-3.0
%%Creator: cairo 1.16.0 (https://cairographics.org)
%%CreationDate: Wed Jan 15 22:34:37 2020
%%Pages: 1
%%DocumentData: Clean7Bit
%%LanguageLevel: 2
%%BoundingBox: 0 0 316 152
%%EndComments
%%BeginProlog
50 dict begin
/q { gsave } bind def
/Q { grestore } bind def
/cm { 6 array astore concat } bind def
/w { setlinewidth } bind def
/J { setlinecap } bind def
/j { setlinejoin } bind def
/M { setmiterlimit } bind def
/d { setdash } bind def
/m { moveto } bind def
/l { lineto } bind def
/c { curveto } bind def
/h { closepath } bind def
/re { exch dup neg 3 1 roll 5 3 roll moveto 0 rlineto
      0 exch rlineto 0 rlineto closepath } bind def
/S { stroke } bind def
/f { fill } bind def
/f* { eofill } bind def
/n { newpath } bind def
/W { clip } bind def
/W* { eoclip } bind def
/BT { } bind def
/ET { } bind def
/BDC { mark 3 1 roll /BDC pdfmark } bind def
/EMC { mark /EMC pdfmark } bind def
/cairo_store_point { /cairo_point_y exch def /cairo_point_x exch def } def
/Tj { show currentpoint cairo_store_point } bind def
/TJ {
  {
    dup
    type /stringtype eq
    { show } { -0.001 mul 0 cairo_font_matrix dtransform rmoveto } ifelse
  } forall
  currentpoint cairo_store_point
} bind def
/cairo_selectfont { cairo_font_matrix aload pop pop pop 0 0 6 array astore
    cairo_font exch selectfont cairo_point_x cairo_point_y moveto } bind def
/Tf { pop /cairo_font exch def /cairo_font_matrix where
      { pop cairo_selectfont } if } bind def
/Td { matrix translate cairo_font_matrix matrix concatmatrix dup
      /cairo_font_matrix exch def dup 4 get exch 5 get cairo_store_point
      /cairo_font where { pop cairo_selectfont } if } bind def
/Tm { 2 copy 8 2 roll 6 array astore /cairo_font_matrix exch def
      cairo_store_point /cairo_font where { pop cairo_selectfont } if } bind def
/g { setgray } bind def
/rg { setrgbcolor } bind def
/d1 { setcachedevice } bind def
/cairo_data_source {
  CairoDataIndex CairoData length lt
    { CairoData CairoDataIndex get /CairoDataIndex CairoDataIndex 1 add def }
    { () } ifelse
} def
/cairo_flush_ascii85_file { cairo_ascii85_file status { cairo_ascii85_file flushfile } if } def
/cairo_image { image cairo_flush_ascii85_file } def
/cairo_imagemask { imagemask cairo_flush_ascii85_file } def
%%EndProlog
%%BeginSetup
%%EndSetup
%%Page: 1 1
%%BeginPageSetup
%%PageBoundingBox: 0 0 316 152
%%EndPageSetup
q 0 0 316 152 rectclip
1 0 0 -1 0 152 cm q
0 g
0.75 w
0 J
0 j
[] 0.0 d
4 M q 1 0 0 1 0 0 cm
52.5 75.801 m 52.5 45.801 l 225 45.801 l 225 0.801 l 315 75.801 l S Q
q 1 0 0 1 0 0 cm
52.5 75.801 m 52.5 105.801 l 225 105.801 l 225 150.801 l 315 75.801 l S Q
102.551 75.246 m 105.926 75.246 l 108.301 75.246 110.457 73.652 110.457
 71.652 c 110.457 69.684 108.488 67.934 105.77 67.934 c 98.707 67.934 l 
98.707 68.559 l 99.207 68.559 l 100.738 68.559 100.77 68.777 100.77 69.496
 c 100.77 79.996 l 100.77 80.715 100.738 80.934 99.207 80.934 c 98.707 80.934
 l 98.707 81.559 l 99.426 81.496 100.895 81.496 101.645 81.496 c 102.395
 81.496 103.895 81.496 104.613 81.559 c 104.613 80.934 l 104.113 80.934 
l 102.582 80.934 102.551 80.715 102.551 79.996 c h
102.488 74.746 m 102.488 69.371 l 102.488 68.684 102.52 68.559 103.457 
68.559 c 105.238 68.559 l 108.395 68.559 108.395 70.684 108.395 71.652 c
 108.395 72.59 108.395 74.746 105.238 74.746 c h
102.488 74.746 m f
114.926 74.934 m 114.926 72.746 l 112.145 72.965 l 112.145 73.59 l 113.551
 73.59 113.707 73.715 113.707 74.715 c 113.707 80.059 l 113.707 80.934 113.488
 80.934 112.145 80.934 c 112.145 81.559 l 112.926 81.527 113.863 81.496 
114.426 81.496 c 115.207 81.496 116.145 81.496 116.957 81.559 c 116.957 
80.934 l 116.52 80.934 l 115.051 80.934 115.02 80.715 115.02 79.996 c 115.02
 76.934 l 115.02 74.965 115.863 73.184 117.363 73.184 c 117.488 73.184 117.551
 73.184 117.582 73.215 c 117.52 73.215 117.113 73.465 117.113 73.996 c 117.113
 74.527 117.551 74.84 117.988 74.84 c 118.332 74.84 118.832 74.59 118.832
 73.965 c 118.832 73.34 118.207 72.746 117.363 72.746 c 115.895 72.746 115.176
 74.09 114.926 74.934 c h
114.926 74.934 m f
128.762 77.277 m 128.762 74.746 126.793 72.621 124.387 72.621 c 121.887
 72.621 119.949 74.809 119.949 77.277 c 119.949 79.871 122.012 81.777 124.355
 81.777 c 126.762 81.777 128.762 79.809 128.762 77.277 c h
124.387 81.277 m 123.512 81.277 122.637 80.871 122.105 79.934 c 121.605
 79.059 121.605 77.84 121.605 77.121 c 121.605 76.34 121.605 75.277 122.074
 74.402 c 122.605 73.496 123.543 73.059 124.355 73.059 c 125.23 73.059 126.074
 73.496 126.605 74.371 c 127.137 75.215 127.137 76.371 127.137 77.121 c 
127.137 77.84 127.137 78.934 126.699 79.809 c 126.23 80.715 125.355 81.277
 124.387 81.277 c h
124.387 81.277 m f
137.129 73.559 m 137.316 73.34 137.316 73.309 137.316 73.215 c 137.316 
72.965 137.129 72.965 136.785 72.965 c 130.41 72.965 l 130.191 76.184 l 
130.691 76.184 l 130.816 74.152 131.191 73.402 133.379 73.402 c 135.66 73.402
 l 130.098 80.934 l 129.91 81.152 129.91 81.184 129.91 81.277 c 129.91 81.559
 130.035 81.559 130.41 81.559 c 137.004 81.559 l 137.348 77.84 l 136.848
 77.84 l 136.66 80.184 136.254 81.059 133.941 81.059 c 131.566 81.059 l 
h
137.129 73.559 m f
140.422 76.527 m 140.547 73.559 142.234 73.059 142.922 73.059 c 144.953
 73.059 145.172 75.746 145.172 76.527 c h
140.422 76.965 m 145.984 76.965 l 146.422 76.965 146.484 76.965 146.484
 76.527 c 146.484 74.559 145.391 72.621 142.922 72.621 c 140.609 72.621 
138.766 74.684 138.766 77.184 c 138.766 79.84 140.859 81.777 143.141 81.777
 c 145.578 81.777 146.484 79.559 146.484 79.184 c 146.484 78.996 146.328
 78.934 146.203 78.934 c 146.047 78.934 145.984 79.059 145.953 79.215 c 
145.266 81.277 143.453 81.277 143.266 81.277 c 142.266 81.277 141.484 80.684
 141.016 79.934 c 140.422 78.996 140.422 77.684 140.422 76.965 c h
140.422 76.965 m f
151.215 77.684 m 151.652 77.777 153.277 78.09 153.277 79.527 c 153.277 
80.527 152.59 81.34 151.027 81.34 c 149.34 81.34 148.621 80.215 148.246 
78.496 c 148.184 78.246 148.184 78.184 147.965 78.184 c 147.715 78.184 147.715
 78.309 147.715 78.652 c 147.715 81.309 l 147.715 81.652 147.715 81.777 
147.934 81.777 c 148.027 81.777 148.059 81.746 148.434 81.371 c 148.465 
81.34 148.465 81.309 148.84 80.934 c 149.715 81.746 150.621 81.777 151.027
 81.777 c 153.309 81.777 154.246 80.434 154.246 78.996 c 154.246 77.965 
153.652 77.34 153.402 77.121 c 152.746 76.465 151.965 76.309 151.121 76.152
 c 149.996 75.934 148.684 75.684 148.684 74.527 c 148.684 73.809 149.184
 72.996 150.902 72.996 c 153.09 72.996 153.215 74.809 153.246 75.402 c 153.246
 75.59 153.434 75.59 153.465 75.59 c 153.746 75.59 153.746 75.496 153.746
 75.121 c 153.746 73.09 l 153.746 72.777 153.746 72.621 153.527 72.621 c
 153.434 72.621 153.371 72.621 153.121 72.871 c 153.059 72.934 152.871 73.121
 152.777 73.184 c 152.027 72.621 151.215 72.621 150.902 72.621 c 148.465
 72.621 147.715 73.965 147.715 75.09 c 147.715 75.777 148.027 76.34 148.559
 76.777 c 149.215 77.277 149.777 77.402 151.215 77.684 c h
151.215 77.684 m f
159.074 77.684 m 159.512 77.777 161.137 78.09 161.137 79.527 c 161.137 
80.527 160.449 81.34 158.887 81.34 c 157.199 81.34 156.48 80.215 156.105
 78.496 c 156.043 78.246 156.043 78.184 155.824 78.184 c 155.574 78.184 
155.574 78.309 155.574 78.652 c 155.574 81.309 l 155.574 81.652 155.574 
81.777 155.793 81.777 c 155.887 81.777 155.918 81.746 156.293 81.371 c 156.324
 81.34 156.324 81.309 156.699 80.934 c 157.574 81.746 158.48 81.777 158.887
 81.777 c 161.168 81.777 162.105 80.434 162.105 78.996 c 162.105 77.965 
161.512 77.34 161.262 77.121 c 160.605 76.465 159.824 76.309 158.98 76.152
 c 157.855 75.934 156.543 75.684 156.543 74.527 c 156.543 73.809 157.043
 72.996 158.762 72.996 c 160.949 72.996 161.074 74.809 161.105 75.402 c 
161.105 75.59 161.293 75.59 161.324 75.59 c 161.605 75.59 161.605 75.496
 161.605 75.121 c 161.605 73.09 l 161.605 72.777 161.605 72.621 161.387 
72.621 c 161.293 72.621 161.23 72.621 160.98 72.871 c 160.918 72.934 160.73
 73.121 160.637 73.184 c 159.887 72.621 159.074 72.621 158.762 72.621 c 
156.324 72.621 155.574 73.965 155.574 75.09 c 155.574 75.777 155.887 76.34
 156.418 76.777 c 157.074 77.277 157.637 77.402 159.074 77.684 c h
159.074 77.684 m f
166.59 74.027 m 166.59 73.434 166.121 72.965 165.559 72.965 c 164.965 72.965
 164.496 73.434 164.496 74.027 c 164.496 74.59 164.965 75.09 165.559 75.09
 c 166.121 75.09 166.59 74.59 166.59 74.027 c h
166.59 80.496 m 166.59 79.934 166.121 79.434 165.559 79.434 c 164.965 79.434
 164.496 79.934 164.496 80.496 c 164.496 81.09 164.965 81.559 165.559 81.559
 c 166.121 81.559 166.59 81.09 166.59 80.496 c h
166.59 80.496 m f
189.074 70.215 m 189.355 69.934 l 189.949 69.34 190.605 68.652 191.949 
68.559 c 192.168 68.527 192.355 68.527 192.355 68.184 c 192.355 68.027 192.262
 67.934 192.105 67.934 c 191.574 67.934 191.012 67.996 190.48 67.996 c 189.793
 67.996 189.105 67.934 188.48 67.934 c 188.355 67.934 188.105 67.934 188.105
 68.309 c 188.105 68.527 188.293 68.559 188.387 68.559 c 188.543 68.559 
189.105 68.59 189.105 69.027 c 189.105 69.371 188.637 69.871 188.574 69.965
 c 183.949 75.309 l 181.762 69.371 l 181.637 69.09 181.637 69.059 181.637
 69.027 c 181.637 68.559 182.605 68.559 182.824 68.559 c 183.074 68.559 
183.293 68.559 183.293 68.152 c 183.293 67.934 183.043 67.934 182.98 67.934
 c 182.418 67.934 181.043 67.996 180.48 67.996 c 179.98 67.996 178.73 67.934
 178.23 67.934 c 178.137 67.934 177.855 67.934 177.855 68.34 c 177.855 68.559
 178.074 68.559 178.324 68.559 c 179.512 68.559 179.605 68.746 179.793 69.246
 c 182.23 75.809 l 182.262 75.871 182.324 76.09 182.324 76.121 c 182.324
 76.184 181.512 79.402 181.418 79.777 c 181.168 80.871 181.137 80.934 179.543
 80.934 c 179.168 80.934 179.012 80.934 179.012 81.34 c 179.012 81.559 179.23
 81.559 179.293 81.559 c 179.824 81.559 181.23 81.496 181.793 81.496 c 182.355
 81.496 183.793 81.559 184.355 81.559 c 184.48 81.559 184.73 81.559 184.73
 81.152 c 184.73 80.934 184.543 80.934 184.168 80.934 c 184.137 80.934 183.762
 80.934 183.418 80.902 c 182.98 80.871 182.855 80.809 182.855 80.59 c 182.855
 80.434 183.043 79.746 183.137 79.34 c 183.855 76.527 l 183.949 76.121 183.98
 76.09 184.137 75.902 c h
189.074 70.215 m f
212.387 75.027 m 212.699 75.027 213.074 75.027 213.074 74.652 c 213.074
 74.246 212.699 74.246 212.418 74.246 c 200.48 74.246 l 200.199 74.246 199.824
 74.246 199.824 74.652 c 199.824 75.027 200.199 75.027 200.48 75.027 c h
212.418 78.902 m 212.699 78.902 213.074 78.902 213.074 78.496 c 213.074
 78.121 212.699 78.121 212.387 78.121 c 200.48 78.121 l 200.199 78.121 199.824
 78.121 199.824 78.496 c 199.824 78.902 200.199 78.902 200.48 78.902 c h
212.418 78.902 m f
227.043 73.59 m 228.762 73.59 l 229.168 73.59 229.355 73.59 229.355 73.184
 c 229.355 72.965 229.168 72.965 228.824 72.965 c 227.168 72.965 l 227.574
 70.684 l 227.668 70.277 227.949 68.871 228.074 68.621 c 228.23 68.246 228.574
 67.934 229.012 67.934 c 229.074 67.934 229.605 67.934 229.98 68.309 c 229.105
 68.371 228.887 69.09 228.887 69.371 c 228.887 69.84 229.262 70.09 229.637
 70.09 c 230.168 70.09 230.73 69.621 230.73 68.871 c 230.73 67.965 229.824
 67.496 229.012 67.496 c 228.324 67.496 227.074 67.871 226.48 69.84 c 226.355
 70.246 226.293 70.465 225.824 72.965 c 224.449 72.965 l 224.043 72.965 
223.824 72.965 223.824 73.34 c 223.824 73.59 224.012 73.59 224.387 73.59
 c 225.699 73.59 l 224.23 81.465 l 223.855 83.402 223.512 85.215 222.48 
85.215 c 222.387 85.215 221.918 85.215 221.512 84.84 c 222.449 84.777 222.637
 84.059 222.637 83.777 c 222.637 83.309 222.262 83.059 221.887 83.059 c 
221.355 83.059 220.793 83.527 220.793 84.277 c 220.793 85.152 221.668 85.652
 222.48 85.652 c 223.574 85.652 224.387 84.465 224.73 83.715 c 225.387 82.465
 225.824 80.059 225.855 79.902 c h
227.043 73.59 m f
238.227 86.34 m 238.227 86.277 238.227 86.246 237.883 85.902 c 235.414 
83.402 234.758 79.621 234.758 76.559 c 234.758 73.09 235.508 69.621 237.977
 67.152 c 238.227 66.902 238.227 66.871 238.227 66.809 c 238.227 66.652 
238.164 66.59 238.039 66.59 c 237.82 66.59 236.039 67.965 234.852 70.496
 c 233.852 72.684 233.602 74.902 233.602 76.559 c 233.602 78.121 233.82 
80.527 234.914 82.809 c 236.133 85.246 237.82 86.559 238.039 86.559 c 238.164
 86.559 238.227 86.496 238.227 86.34 c h
238.227 86.34 m f
246.039 75.527 m 246.164 75.027 246.633 73.184 248.008 73.184 c 248.102
 73.184 248.602 73.184 249.008 73.434 c 248.445 73.559 248.07 74.027 248.07
 74.527 c 248.07 74.84 248.289 75.215 248.82 75.215 c 249.258 75.215 249.883
 74.871 249.883 74.059 c 249.883 73.027 248.727 72.746 248.039 72.746 c 
246.883 72.746 246.195 73.809 245.945 74.246 c 245.445 72.934 244.383 72.746
 243.789 72.746 c 241.727 72.746 240.57 75.309 240.57 75.809 c 240.57 76.027
 240.789 76.027 240.82 76.027 c 240.977 76.027 241.039 75.965 241.07 75.809
 c 241.758 73.684 243.07 73.184 243.758 73.184 c 244.133 73.184 244.82 73.371
 244.82 74.527 c 244.82 75.152 244.477 76.465 243.758 79.277 c 243.445 80.496
 242.727 81.34 241.852 81.34 c 241.727 81.34 241.289 81.34 240.852 81.09
 c 241.352 80.965 241.789 80.559 241.789 79.996 c 241.789 79.465 241.352
 79.309 241.07 79.309 c 240.445 79.309 239.977 79.809 239.977 80.465 c 239.977
 81.371 240.945 81.777 241.82 81.777 c 243.164 81.777 243.883 80.371 243.914
 80.277 c 244.164 80.996 244.883 81.777 246.07 81.777 c 248.133 81.777 249.258
 79.215 249.258 78.715 c 249.258 78.496 249.102 78.496 249.039 78.496 c 
248.852 78.496 248.82 78.59 248.758 78.715 c 248.102 80.871 246.758 81.34
 246.133 81.34 c 245.352 81.34 245.039 80.715 245.039 80.027 c 245.039 79.59
 245.133 79.152 245.352 78.277 c h
246.039 75.527 m f
256.52 76.559 m 256.52 75.027 256.301 72.621 255.207 70.34 c 254.02 67.902
 252.301 66.59 252.113 66.59 c 251.988 66.59 251.895 66.684 251.895 66.809
 c 251.895 66.871 251.895 66.902 252.27 67.277 c 254.238 69.246 255.363 
72.402 255.363 76.559 c 255.363 79.996 254.645 83.496 252.176 85.996 c 251.895
 86.246 251.895 86.277 251.895 86.34 c 251.895 86.465 251.988 86.559 252.113
 86.559 c 252.301 86.559 254.113 85.184 255.27 82.652 c 256.301 80.465 256.52
 78.246 256.52 76.559 c h
256.52 76.559 m f
1 0 0 rg
0.751181 w
q 1 0 0 1 0 0 cm
292.5 15.801 m 232.5 68.301 l S Q
240.738 65.52 m 231.758 68.969 l 236.367 60.523 l 236.57 62.949 238.344
 64.961 240.738 65.52 c h
240.738 65.52 m f*
0.388658 w
1 j
q 1 -0.875 0.875 1 0 0 cm
103.877 156.412 m 97.082 153.915 l 103.878 151.416 l 102.791 152.891 102.798
 154.909 103.877 156.412 c h
103.877 156.412 m S Q
0.984314 0 0 rg
0.75 w
0 j
q 1 0 0 1 0 0 cm
292.5 135.801 m 247.5 90.801 l S Q
250.816 98.824 m 246.785 90.105 l 255.504 94.137 l 253.102 94.5 251.215
 96.398 250.816 98.824 c h
250.816 98.824 m f*
0.364602 w
1 j
q 1 1 -1 1 0 0 cm
174.82 -75.996 m 168.445 -78.34 l 174.82 -80.684 l 173.801 -79.301 173.807
 -77.408 174.82 -75.996 c h
174.82 -75.996 m S Q
0.75 w
0 j
q 1 0 0 1 0 0 cm
202.5 150.801 m 187.969 88.844 l S Q
186.559 97.406 m 187.727 87.875 l 193.012 95.895 l 190.777 94.938 188.176
 95.559 186.559 97.406 c h
186.559 97.406 m f*
0.502003 w
1 j
q 0.234539 1 -1 0.234539 0 0 cm
133.801 -155.177 m 125.027 -158.403 l 133.803 -161.63 l 132.399 -159.725
 132.41 -157.121 133.801 -155.177 c h
133.801 -155.177 m S Q
0 0.529412 0 rg
0.75 w
0 j
q 1 0 0 1 0 0 cm
0 75.801 m 52.5 75.801 l S Q
q 1 0 0 1 0 0 cm
52.5 8.301 m 97.5 45.801 l S Q
q 1 0 0 1 0 0 cm
52.5 143.301 m 97.5 105.801 l S Q
Q Q
showpage
%%Trailer
end
%%EOF
